%YAML 1.1
%TAG !u! tag:unity3d.com,2011:
--- !u!74 &7400000
AnimationClip:
  m_ObjectHideFlags: 0
  m_CorrespondingSourceObject: {fileID: 0}
  m_PrefabInstance: {fileID: 0}
  m_PrefabAsset: {fileID: 0}
  m_Name: Rolling
  serializedVersion: 6
  m_Legacy: 0
  m_Compressed: 0
  m_UseHighQualityCurve: 1
  m_RotationCurves: []
  m_CompressedRotationCurves: []
  m_EulerCurves: []
  m_PositionCurves: []
  m_ScaleCurves: []
  m_FloatCurves: []
  m_PPtrCurves:
  - curve:
    - time: 0
      value: {fileID: 21300000, guid: f43899865d4cf4e40bffe24d4d0b1db6, type: 3}
    - time: 0.2
      value: {fileID: 21300000, guid: 8cb8294ca56e996418768062e0bb26af, type: 3}
    - time: 0.4
      value: {fileID: 21300000, guid: aea36db4691bd1044a86e4a0f669a473, type: 3}
    - time: 0.6
      value: {fileID: 21300000, guid: be07a45169ec22f41b3a0533bd931f02, type: 3}
    - time: 0.8
      value: {fileID: 21300000, guid: b865c05b311f1d54aadb5dabdf4400bd, type: 3}
    attribute: m_Sprite
    path: 
    classID: 212
    script: {fileID: 0}
  m_SampleRate: 5
  m_WrapMode: 0
  m_Bounds:
    m_Center: {x: 0, y: 0, z: 0}
    m_Extent: {x: 0, y: 0, z: 0}
  m_ClipBindingConstant:
    genericBindings:
    - serializedVersion: 2
      path: 0
      attribute: 0
      script: {fileID: 0}
      typeID: 212
      customType: 23
      isPPtrCurve: 1
    pptrCurveMapping:
    - {fileID: 21300000, guid: f43899865d4cf4e40bffe24d4d0b1db6, type: 3}
    - {fileID: 21300000, guid: 8cb8294ca56e996418768062e0bb26af, type: 3}
    - {fileID: 21300000, guid: aea36db4691bd1044a86e4a0f669a473, type: 3}
    - {fileID: 21300000, guid: be07a45169ec22f41b3a0533bd931f02, type: 3}
    - {fileID: 21300000, guid: b865c05b311f1d54aadb5dabdf4400bd, type: 3}
  m_AnimationClipSettings:
    serializedVersion: 2
    m_AdditiveReferencePoseClip: {fileID: 0}
    m_AdditiveReferencePoseTime: 0
    m_StartTime: 0
    m_StopTime: 1
    m_OrientationOffsetY: 0
    m_Level: 0
    m_CycleOffset: 0
    m_HasAdditiveReferencePose: 0
    m_LoopTime: 1
    m_LoopBlend: 0
    m_LoopBlendOrientation: 0
    m_LoopBlendPositionY: 0
    m_LoopBlendPositionXZ: 0
    m_KeepOriginalOrientation: 0
    m_KeepOriginalPositionY: 1
    m_KeepOriginalPositionXZ: 0
    m_HeightFromFeet: 0
    m_Mirror: 0
  m_EditorCurves: []
  m_EulerEditorCurves: []
  m_HasGenericRootTransform: 0
  m_HasMotionFloatCurves: 0
  m_Events: []
